{
	"bans": {
		"Block": [],
		
		"Current": [
			"Research Investment",
			"Recollection Bazaar",
			"The Primitive Tribes of Thabbash",
			"Contiguous Defalcating Machine",
			"Remains of Foreman Pete, the Clock Man"
		],
		"Chronicles": [
			"Emergency Obfuscation"
		]
	},

	"special": [
		"Imperial Army",
		"Counter-Imperial Army",
		"Slightly Less Evil Alliance",
		"The Evil Alliance",
		"The Knitting Coalition",
		"The Open R&D Faction",
		"The Society of Magical Propriety",
		"The Union of Unextraordinary Miners"
	]
}